{"shader" : "pipelines/rigid/rigid.shd",
"texture" : {"source" : "default.dds", "srgb" : true},
"texture" : {"source" : "normal.dds"},
"texture" : {"source" : ""},
"uniforms" : [],
"shininess" : 4.00000000,
"color" : [1.00000000,
1.00000000,
1.00000000]}