{"shader" : "pipelines/grass/grass.shd",
"texture" : {"source" : "/models/plants/grass03/diffus.dds",
"srgb" : true},
"texture" : {"source" : "/models/plants/bush/noise.dds"},
"defines" : ["ALPHA_CUTOUT"],
"uniforms" : [{"name" : "u_time",
"time" : 0}],
"shininess" : 4.00000000,
"alpha_ref" : 0.30000000,
"color" : [1.00000000,
1.00000000,
1.00000000]}