{"shader" : "pipelines/sky/sky.shd",
"backface_culling" : false,
"uniforms" : 
[
	{
		"name" : "u_airColor",
		"color" : [0.18867780436772762, 0.4978442963618773, 0.6616065586417131]
	},
	{
		"name" : "u_brightness",
		"vec3" : [5, 0.15, 200]
	},
	{
		"name" : "u_strength",
		"vec3" : [0.028, 0.139, 0.0264]
	},
	{
		"name" : "u_sunSize",
		"float_value" : 15
	}
],
"shininess" : 4.00000000,
"color" : [1.00000000,
1.00000000,
1.00000000]
}