{"shader" : "pipelines/rigid/rigid.shd",
"texture" : {"source" : "/models/rocks/rock_02/diffuse.dds",
"srgb" : true},
"texture" : {"source" : "/models/rocks/rock_02/normal.dds"},
"texture" : {"source" : "/models/rocks/rock_02/specular.dds"},
"uniforms" : [],
"shininess" : 4.00000000,
"color" : [1.00000000,
1.00000000,
1.00000000]}