{"shader" : "pipelines/rigid/rigid.shd",
"texture" : {"source" : "/models/sponza/sponza_column_b_diff.dds",
"srgb" : true},
"texture" : {"source" : "/models/sponza/sponza_column_b_ddn.dds"},
"texture" : {"source" : "/models/sponza/sponza_column_b_spec.dds"},
"defines" : ["NORMAL_MAPPING",
"SPECULAR_TEXTURE"],
"uniforms" : [],
"shininess" : 4.00000000,
"color" : [1.00000000,
1.00000000,
1.00000000]}