{"shader" : "pipelines/rigid/rigid.shd",
"texture" : {"source" : "/models/sponza/sponza_curtain_green_diff.dds",
"srgb" : true},
"texture" : {"source" : ""},
"texture" : {"source" : "/models/sponza/sponza_fabric_spec.dds"},
"defines" : ["SPECULAR_TEXTURE"],
"uniforms" : [],
"shininess" : 4.00000000,
"color" : [1.00000000,
1.00000000,
1.00000000]}