{"shader" : "pipelines/hdr_dof_fxaa/hdr.shd",
"backface_culling" : false,
"defines" : [],
"uniforms" : [
{"name" : "midgray",
"float_value" : 0.18000001}],
"shininess" : 4.00000000,
"alpha_ref" : 0.30000000,
"color" : [1.00000000,
1.00000000,
1.00000000]}