{"commands" : [{"undo_command_type" : "add_entity",
"pos_x" : -0.00000017,
"pos_y" : 0.00000000,
"pos_z" : -3.00000000},
{"undo_command_type" : "add_component",
"component_type" : 790570676,
"entities" : [1]},
{"undo_command_type" : "move_entity",
"count" : 1,
"entities" : [1,
2.46505690,
0.00000000,
-3.00000000,
0.00000000,
0.00000000,
0.00000000,
1.00000000]},
{"undo_command_type" : "add_entity",
"pos_x" : -0.00000017,
"pos_y" : 0.00000000,
"pos_z" : -3.00000000},
{"undo_command_type" : "add_component",
"component_type" : 1512583253,
"entities" : [2]},
{"undo_command_type" : "set_property_values",
"index" : -1,
"entities" : [2],
"component_type" : 1512583253,
"data" : [109,
111,
100,
101,
108,
115,
47,
117,
116,
105,
108,
115,
47,
99,
117,
98,
101,
47,
99,
117,
98,
101,
46,
109,
115,
104,
0],
"property_name_hash" : 1478916677},
{"undo_command_type" : "add_component",
"component_type" : 894846619,
"entities" : [2]},
{"undo_command_type" : "set_property_values",
"index" : -1,
"entities" : [2],
"component_type" : 894846619,
"data" : [0,
0,
0,
63,
0,
0,
0,
63,
0,
0,
0,
63],
"property_name_hash" : 1475513172},
{"undo_command_type" : "move_entity",
"count" : 1,
"entities" : [2,
0.00000000,
0.00000000,
0.00000000,
0.00000000,
0.00000000,
0.00000000,
1.00000000]},
{"undo_command_type" : "paste_entity",
"pos_x" : -0.00000039,
"pos_y" : 0.00000000,
"pos_z" : -0.50000000,
"size" : 166,
"data" : [1,
0,
0,
0,
0,
0,
128,
63,
0,
0,
0,
0,
0,
0,
0,
0,
0,
0,
0,
0,
0,
0,
0,
0,
0,
0,
128,
63,
0,
0,
0,
0,
0,
0,
0,
0,
0,
0,
0,
0,
0,
0,
0,
0,
0,
0,
128,
63,
0,
0,
0,
0,
0,
0,
0,
128,
0,
0,
0,
0,
0,
0,
0,
0,
0,
0,
128,
63,
2,
0,
0,
0,
85,
48,
40,
90,
109,
111,
100,
101,
108,
115,
47,
117,
116,
105,
108,
115,
47,
99,
117,
98,
101,
47,
99,
117,
98,
101,
46,
109,
115,
104,
0,
1,
0,
0,
0,
109,
111,
100,
101,
108,
115,
47,
117,
116,
105,
108,
115,
47,
99,
117,
98,
101,
47,
100,
101,
102,
97,
117,
108,
116,
109,
97,
116,
101,
114,
105,
97,
108,
46,
109,
97,
116,
0,
155,
70,
86,
53,
0,
0,
0,
0,
63,
0,
0,
0,
63,
0,
0,
0,
63,
0,
0,
0,
0]},
{"undo_command_type" : "move_entity",
"count" : 1,
"entities" : [2,
5.00000000,
0.00000000,
0.00000000,
0.00000000,
0.00000000,
0.00000000,
1.00000000]},
{"undo_command_type" : "set_property_values",
"index" : -1,
"entities" : [2],
"component_type" : 894846619,
"data" : [1],
"property_name_hash" : 2216047400},
{"undo_command_type" : "add_component",
"component_type" : 1547686008,
"entities" : [3]},
{"undo_command_type" : "set_property_values",
"index" : -1,
"entities" : [3],
"component_type" : 1547686008,
"data" : [3,
0,
0,
0],
"property_name_hash" : 232627765},
{"undo_command_type" : "set_property_values",
"index" : -1,
"entities" : [3],
"component_type" : 1547686008,
"data" : [1,
0,
0,
0],
"property_name_hash" : 1601142044},
{"undo_command_type" : "set_property_values",
"index" : -1,
"entities" : [3],
"component_type" : 1547686008,
"data" : [1,
0,
0,
0],
"property_name_hash" : 3328584870},
{"undo_command_type" : "set_property_values",
"index" : -1,
"entities" : [3],
"component_type" : 1547686008,
"data" : [146,
10,
6,
63,
146,
10,
6,
63],
"property_name_hash" : 1541831038},
{"undo_command_type" : "move_entity",
"count" : 1,
"entities" : [3,
-0.00000039,
0.00000000,
0.00000000,
0.00000000,
0.00000000,
0.00000000,
1.00000000]},
{"undo_command_type" : "paste_entity",
"pos_x" : 0.18372326,
"pos_y" : 4.53417397,
"pos_z" : -1.62382507,
"size" : 242,
"data" : [1,
0,
0,
0,
0,
0,
128,
63,
0,
0,
0,
0,
0,
0,
0,
0,
0,
0,
0,
0,
0,
0,
0,
0,
0,
0,
128,
63,
0,
0,
0,
0,
0,
0,
0,
0,
0,
0,
0,
0,
0,
0,
0,
0,
0,
0,
128,
63,
0,
0,
0,
0,
196,
52,
211,
180,
0,
0,
0,
0,
0,
0,
0,
0,
0,
0,
128,
63,
3,
0,
0,
0,
85,
48,
40,
90,
109,
111,
100,
101,
108,
115,
47,
117,
116,
105,
108,
115,
47,
99,
117,
98,
101,
47,
99,
117,
98,
101,
46,
109,
115,
104,
0,
1,
0,
0,
0,
109,
111,
100,
101,
108,
115,
47,
117,
116,
105,
108,
115,
47,
99,
117,
98,
101,
47,
100,
101,
102,
97,
117,
108,
116,
109,
97,
116,
101,
114,
105,
97,
108,
46,
109,
97,
116,
0,
155,
70,
86,
53,
0,
0,
0,
0,
63,
0,
0,
0,
63,
0,
0,
0,
63,
0,
0,
0,
0,
120,
208,
63,
92,
3,
0,
0,
0,
0,
0,
0,
0,
0,
0,
0,
0,
0,
0,
0,
0,
0,
0,
128,
63,
0,
0,
0,
0,
0,
0,
0,
0,
0,
0,
0,
0,
0,
0,
0,
0,
0,
0,
0,
0,
1,
0,
0,
0,
1,
0,
0,
0,
0,
0,
0,
0,
0,
0,
128,
63,
146,
10,
6,
63,
146,
10,
6,
63,
219,
15,
201,
191,
219,
15,
201,
63]},
{"undo_command_type" : "move_entity",
"count" : 1,
"entities" : [4,
0.00000000,
0.00000000,
2.00000000,
0.00000000,
0.00000000,
0.00000000,
1.00000000]},
{"undo_command_type" : "destroy_components",
"entities" : [4],
"component_type" : 1547686008},
{"undo_command_type" : "add_component",
"component_type" : 1541544812,
"entities" : [4]},
{"undo_command_type" : "paste_entity",
"pos_x" : 0.18372326,
"pos_y" : 4.53417397,
"pos_z" : -1.62382507,
"size" : 166,
"data" : [1,
0,
0,
0,
0,
0,
128,
63,
0,
0,
0,
0,
0,
0,
0,
0,
0,
0,
0,
0,
0,
0,
0,
0,
0,
0,
128,
63,
0,
0,
0,
0,
0,
0,
0,
0,
0,
0,
0,
0,
0,
0,
0,
0,
0,
0,
128,
63,
0,
0,
0,
0,
0,
0,
160,
64,
0,
0,
0,
0,
0,
0,
0,
0,
0,
0,
128,
63,
2,
0,
0,
0,
85,
48,
40,
90,
109,
111,
100,
101,
108,
115,
47,
117,
116,
105,
108,
115,
47,
99,
117,
98,
101,
47,
99,
117,
98,
101,
46,
109,
115,
104,
0,
1,
0,
0,
0,
109,
111,
100,
101,
108,
115,
47,
117,
116,
105,
108,
115,
47,
99,
117,
98,
101,
47,
100,
101,
102,
97,
117,
108,
116,
109,
97,
116,
101,
114,
105,
97,
108,
46,
109,
97,
116,
0,
155,
70,
86,
53,
1,
0,
0,
0,
63,
0,
0,
0,
63,
0,
0,
0,
63,
0,
0,
0,
0]},
{"undo_command_type" : "move_entity",
"count" : 1,
"entities" : [5,
5.00000000,
0.00000000,
2.00000000,
0.00000000,
0.00000000,
0.00000000,
1.00000000]},
{"undo_command_type" : "set_property_values",
"index" : -1,
"entities" : [4],
"component_type" : 1541544812,
"data" : [5,
0,
0,
0],
"property_name_hash" : 232627765},
{"undo_command_type" : "set_property_values",
"index" : -1,
"entities" : [4],
"component_type" : 1541544812,
"data" : [0,
0,
64,
64,
0,
0,
160,
64],
"property_name_hash" : 1366244749},
{"undo_command_type" : "set_property_values",
"index" : -1,
"entities" : [4],
"component_type" : 1541544812,
"data" : [0,
0,
128,
63],
"property_name_hash" : 2343764982},
{"undo_command_type" : "set_property_values",
"index" : -1,
"entities" : [4],
"component_type" : 1541544812,
"data" : [0,
0,
32,
65],
"property_name_hash" : 197530275},
{"undo_command_type" : "paste_entity",
"pos_x" : 0.18372326,
"pos_y" : 4.53417397,
"pos_z" : -1.62382507,
"size" : 194,
"data" : [1,
0,
0,
0,
0,
0,
128,
63,
0,
0,
0,
0,
0,
0,
0,
0,
0,
0,
0,
0,
0,
0,
0,
0,
0,
0,
128,
63,
0,
0,
0,
0,
0,
0,
0,
0,
0,
0,
0,
0,
0,
0,
0,
0,
0,
0,
128,
63,
0,
0,
0,
0,
0,
0,
0,
0,
0,
0,
0,
0,
0,
0,
0,
64,
0,
0,
128,
63,
3,
0,
0,
0,
85,
48,
40,
90,
109,
111,
100,
101,
108,
115,
47,
117,
116,
105,
108,
115,
47,
99,
117,
98,
101,
47,
99,
117,
98,
101,
46,
109,
115,
104,
0,
1,
0,
0,
0,
109,
111,
100,
101,
108,
115,
47,
117,
116,
105,
108,
115,
47,
99,
117,
98,
101,
47,
100,
101,
102,
97,
117,
108,
116,
109,
97,
116,
101,
114,
105,
97,
108,
46,
109,
97,
116,
0,
155,
70,
86,
53,
0,
0,
0,
0,
63,
0,
0,
0,
63,
0,
0,
0,
63,
0,
0,
0,
0,
108,
27,
226,
91,
0,
0,
128,
63,
0,
0,
32,
65,
205,
204,
204,
60,
5,
0,
0,
0,
0,
0,
64,
64,
0,
0,
160,
64]},
{"undo_command_type" : "destroy_components",
"entities" : [6],
"component_type" : 1541544812},
{"undo_command_type" : "move_entity",
"count" : 1,
"entities" : [6,
0.00000000,
0.00000000,
4.00000000,
0.00000000,
0.00000000,
0.00000000,
1.00000000]},
{"undo_command_type" : "paste_entity",
"pos_x" : 0.14701241,
"pos_y" : 0.43438673,
"pos_z" : 3.50000024,
"size" : 166,
"data" : [1,
0,
0,
0,
0,
0,
128,
63,
0,
0,
0,
0,
0,
0,
0,
0,
0,
0,
0,
0,
0,
0,
0,
0,
0,
0,
128,
63,
0,
0,
0,
0,
0,
0,
0,
0,
0,
0,
0,
0,
0,
0,
0,
0,
0,
0,
128,
63,
0,
0,
0,
0,
0,
0,
160,
64,
0,
0,
0,
0,
0,
0,
0,
64,
0,
0,
128,
63,
2,
0,
0,
0,
85,
48,
40,
90,
109,
111,
100,
101,
108,
115,
47,
117,
116,
105,
108,
115,
47,
99,
117,
98,
101,
47,
99,
117,
98,
101,
46,
109,
115,
104,
0,
1,
0,
0,
0,
109,
111,
100,
101,
108,
115,
47,
117,
116,
105,
108,
115,
47,
99,
117,
98,
101,
47,
100,
101,
102,
97,
117,
108,
116,
109,
97,
116,
101,
114,
105,
97,
108,
46,
109,
97,
116,
0,
155,
70,
86,
53,
1,
0,
0,
0,
63,
0,
0,
0,
63,
0,
0,
0,
63,
0,
0,
0,
0]},
{"undo_command_type" : "move_entity",
"count" : 1,
"entities" : [7,
5.00000000,
0.00000000,
4.00000000,
0.00000000,
0.00000000,
0.00000000,
1.00000000]},
{"undo_command_type" : "paste_entity",
"pos_x" : 0.14701241,
"pos_y" : 0.43438673,
"pos_z" : 3.50000024,
"size" : 166,
"data" : [1,
0,
0,
0,
0,
0,
128,
63,
0,
0,
0,
0,
0,
0,
0,
0,
0,
0,
0,
0,
0,
0,
0,
0,
0,
0,
128,
63,
0,
0,
0,
0,
0,
0,
0,
0,
0,
0,
0,
0,
0,
0,
0,
0,
0,
0,
128,
63,
0,
0,
0,
0,
0,
0,
160,
64,
0,
0,
0,
0,
0,
0,
128,
64,
0,
0,
128,
63,
2,
0,
0,
0,
85,
48,
40,
90,
109,
111,
100,
101,
108,
115,
47,
117,
116,
105,
108,
115,
47,
99,
117,
98,
101,
47,
99,
117,
98,
101,
46,
109,
115,
104,
0,
1,
0,
0,
0,
109,
111,
100,
101,
108,
115,
47,
117,
116,
105,
108,
115,
47,
99,
117,
98,
101,
47,
100,
101,
102,
97,
117,
108,
116,
109,
97,
116,
101,
114,
105,
97,
108,
46,
109,
97,
116,
0,
155,
70,
86,
53,
1,
0,
0,
0,
63,
0,
0,
0,
63,
0,
0,
0,
63,
0,
0,
0,
0]},
{"undo_command_type" : "move_entity",
"count" : 1,
"entities" : [8,
5.00000000,
0.00000000,
6.00000000,
0.00000000,
0.00000000,
0.00000000,
1.00000000]},
{"undo_command_type" : "add_component",
"component_type" : 2641119429,
"entities" : [6]},
{"undo_command_type" : "set_property_values",
"index" : -1,
"entities" : [6],
"component_type" : 2641119429,
"data" : [7,
0,
0,
0],
"property_name_hash" : 232627765},
{"undo_command_type" : "set_property_values",
"index" : -1,
"entities" : [6],
"component_type" : 2641119429,
"data" : [1],
"property_name_hash" : 2609250285},
{"undo_command_type" : "set_property_values",
"index" : -1,
"entities" : [6],
"component_type" : 2641119429,
"data" : [146,
10,
6,
191,
146,
10,
6,
63],
"property_name_hash" : 3193423716},
{"undo_command_type" : "set_property_values",
"index" : -1,
"entities" : [6],
"component_type" : 2641119429,
"data" : [0,
0,
0,
0,
0,
0,
0,
0,
0,
0,
128,
63],
"property_name_hash" : 3660699327},
{"undo_command_type" : "move_entity",
"count" : 1,
"entities" : [6,
0.00000000,
0.00000000,
4.00000000,
0.00000000,
0.70710678,
0.00000000,
0.70710678]},
{"undo_command_type" : "paste_entity",
"pos_x" : 0.14701241,
"pos_y" : 0.43438673,
"pos_z" : 3.50000024,
"size" : 194,
"data" : [1,
0,
0,
0,
0,
0,
128,
63,
0,
0,
0,
0,
0,
0,
0,
0,
0,
0,
0,
0,
0,
0,
0,
0,
0,
0,
128,
63,
0,
0,
0,
0,
0,
0,
0,
0,
0,
0,
0,
0,
0,
0,
0,
0,
0,
0,
128,
63,
0,
0,
0,
0,
0,
0,
0,
0,
0,
0,
0,
0,
0,
0,
0,
64,
0,
0,
128,
63,
3,
0,
0,
0,
85,
48,
40,
90,
109,
111,
100,
101,
108,
115,
47,
117,
116,
105,
108,
115,
47,
99,
117,
98,
101,
47,
99,
117,
98,
101,
46,
109,
115,
104,
0,
1,
0,
0,
0,
109,
111,
100,
101,
108,
115,
47,
117,
116,
105,
108,
115,
47,
99,
117,
98,
101,
47,
100,
101,
102,
97,
117,
108,
116,
109,
97,
116,
101,
114,
105,
97,
108,
46,
109,
97,
116,
0,
155,
70,
86,
53,
0,
0,
0,
0,
63,
0,
0,
0,
63,
0,
0,
0,
63,
0,
0,
0,
0,
108,
27,
226,
91,
0,
0,
128,
63,
0,
0,
32,
65,
205,
204,
204,
60,
5,
0,
0,
0,
0,
0,
64,
64,
0,
0,
160,
64]},
{"undo_command_type" : "move_entity",
"count" : 1,
"entities" : [9,
0.14700000,
0.43438673,
3.50000024,
0.00000000,
0.00000000,
0.00000000,
1.00000000]},
{"undo_command_type" : "destroy_components",
"entities" : [9],
"component_type" : 1541544812},
{"undo_command_type" : "move_entity",
"count" : 1,
"entities" : [9,
0.00000000,
0.00000000,
6.00000000,
0.00000000,
0.00000000,
0.00000000,
1.00000000]},
{"undo_command_type" : "add_component",
"component_type" : 3600211001,
"entities" : [9]},
{"undo_command_type" : "set_property_values",
"index" : -1,
"entities" : [9],
"component_type" : 3600211001,
"data" : [8,
0,
0,
0],
"property_name_hash" : 232627765},
{"undo_command_type" : "set_property_values",
"index" : -1,
"entities" : [9],
"component_type" : 3600211001,
"data" : [1],
"property_name_hash" : 2609250285},
{"undo_command_type" : "set_property_values",
"index" : -1,
"entities" : [9],
"component_type" : 3600211001,
"data" : [146,
10,
6,
63,
146,
10,
6,
63],
"property_name_hash" : 3193423716},
{"undo_command_type" : "set_property_values",
"index" : -1,
"entities" : [3],
"component_type" : 1547686008,
"data" : [2,
0,
0,
0],
"property_name_hash" : 232627765}]}